[
  {
    "title": "Air Jordan 7 Retro",
    "categories" : ["Erkek","Nike"],
    "isItNew": true,
    "coverImg": "/static/images/shoe/1.jpg",
    "discountAmout": "-35%",
    "imgsPath": [
      "/static/images/shoe/2.jpg",
      "/static/images/shoe/3.jpg",
      "/static/images/shoe/4.jpg",
      "/static/images/shoe/5.jpg"
    ],
    "oldPrice": "£ 220",
    "price": "£ 120",
    "isLiked": false,
    "starCount": 3,

    "width": "Küçük",
    "haveSizes" : [40 ,41, 42, 43, 44],
    "haveColor": ["kırmızı","siyah","beyaz"]
  },

  {
    "title": "Nike Hyperdunk X",
    "categories" : ["Erkek","Nike"],
    "isItNew": false,
    "discountAmout": "",
    "coverImg": "/static/images/shoe/1.jpg",
    "imgsPath": [
      "/static/images/shoe/2.jpg",
      "/static/images/shoe/3.jpg",
      "/static/images/shoe/4.jpg",
      "/static/images/shoe/5.jpg"
    ],
    "oldPrice": "",
    "price": "£ 130",
    "isLiked": false,
    "starCount": 3,

    "width": "Normal",
    "haveSizes" : [40 ,41, 43, 44],
    "haveColor": ["açık kahve","siyah"]
  },

  {
    "title": "Air Jordan 33",
    "categories" : ["Erkek","Nike"],
    "isItNew": false,
    "discountAmout": "-30%",
    "coverImg": "/static/images/shoe/1.jpg",
    "imgsPath": [
      "/static/images/shoe/2.jpg",
      "/static/images/shoe/3.jpg",
      "/static/images/shoe/4.jpg",
      "/static/images/shoe/5.jpg"
    ],
    "oldPrice": "£ 150",
    "price": "£ 105",
    "isLiked": false,
    "starCount": 3,

    "width": "Normal",
    "haveSizes" : [40 ,41, 42, 43, 44, 45],
    "haveColor": ["kırmızı","siyah","beyaz"]
  },

  {
    "title": "Puma Clyde Court",
    "categories" : ["Erkek","Puma"],
    "isItNew": true,
    "discountAmout": "",
    "coverImg": "/static/images/shoe/1.jpg",
    "imgsPath": [
      "/static/images/shoe/2.jpg",
      "/static/images/shoe/3.jpg",
      "/static/images/shoe/4.jpg",
      "/static/images/shoe/5.jpg"
    ],
    "oldPrice": "",
    "price": "£ 215",
    "isLiked": false,
    "starCount": 3,

    "width": "Normal",
    "haveSizes" : [40 ,41, 42, 43, 44, 45],
    "haveColor": ["pembe","beyaz","deniz yeşili","siyah"]
  },

  {
    "title": "Puma Legacy",
    "categories" : ["Erkek","Puma"],
    "isItNew": false,
    "discountAmout": "-65%",
    "coverImg": "/static/images/shoe/1.jpg",
    "imgsPath": [
      "/static/images/shoe/2.jpg",
      "/static/images/shoe/3.jpg",
      "/static/images/shoe/4.jpg",
      "/static/images/shoe/5.jpg"
    ],
    "oldPrice": "£ 180",
    "price": "£ 300",
    "isLiked": false,
    "starCount": 3,

    "width": "Normal",
    "haveSizes" : [40 ,41, 42, 43, 44, 45],
    "haveColor": ["kırmızı","siyah","beyaz"]
  },

  {
    "title": "Nike Kyrie 5",
    "categories" : ["Erkek","Nike"],
    "isItNew": false,
    "discountAmout": "",
    "coverImg": "/static/images/shoe/1.jpg",
    "imgsPath": [
      "/static/images/shoe/2.jpg",
      "/static/images/shoe/3.jpg",
      "/static/images/shoe/4.jpg",
      "/static/images/shoe/5.jpg"
    ],
    "oldPrice": "",
    "price": "£ 320",
    "isLiked": false,
    "starCount": 3,

    "width": "Normal",
    "haveSizes" : [40 ,41, 42, 43, 44],
    "haveColor": ["sarı","gri","siyah","beyaz"]
  },

  {
    "title": "Air Jordan 33",
    "categories" : ["Erkek","Nike"],
    "isItNew": false,
    "discountAmout": "-30%",
    "coverImg": "/static/images/shoe/1.jpg",
    "imgsPath": [
      "/static/images/shoe/2.jpg",
      "/static/images/shoe/3.jpg",
      "/static/images/shoe/4.jpg",
      "/static/images/shoe/5.jpg"
    ],
    "oldPrice": "£ 150",
    "price": "£ 105",
    "isLiked": false,
    "starCount": 3,

    "width": "Normal",
    "haveSizes" : [40 ,41, 42, 43, 44, 45],
    "haveColor": ["kırmızı","siyah","beyaz"]
  },

  {
    "title": "Nike Hyperdunk 2014",
    "categories" : ["Erkek","Nike"],
    "isItNew": false,
    "discountAmout": "",
    "coverImg": "/static/images/shoe/1.jpg",
    "imgsPath": [
      "/static/images/shoe/2.jpg",
      "/static/images/shoe/3.jpg",
      "/static/images/shoe/4.jpg",
      "/static/images/shoe/5.jpg"
    ],
    "oldPrice": "",
    "price": "$ 150",
    "isLiked": false,
    "starCount": 3,

    "width": "Geniş",
    "haveSizes" : [42, 43, 44, 45],
    "haveColor": ["kırmızı","turuncu","sarı","siyah"]
  },

  {
    "title": "Anta KT4",
    "categories" : ["Erkek","Anta"],
    "isItNew": true,
    "discountAmout": "",
    "coverImg": "/static/images/shoe/1.jpg",
    "imgsPath": [
      "/static/images/shoe/2.jpg",
      "/static/images/shoe/3.jpg",
      "/static/images/shoe/4.jpg",
      "/static/images/shoe/5.jpg"
    ],
    "oldPrice": "",
    "price": "£ 125",
    "isLiked": false,
    "starCount": 3,

    "width": "Normal",
    "haveSizes" : [40 ,41, 42, 43, 44],
    "haveColor": ["mavi","mor","beyaz","siyah"]
  },

  {
    "title": "Under Armour HOVR Havoc Low",
    "categories" : ["Erkek","Under Armour"],
    "isItNew": false,
    "discountAmout": "",
    "coverImg": "/static/images/shoe/1.jpg",
    "imgsPath": [
      "/static/images/shoe/2.jpg",
      "/static/images/shoe/3.jpg",
      "/static/images/shoe/4.jpg",
      "/static/images/shoe/5.jpg"
    ],
    "oldPrice": "",
    "price": "£ 105",
    "isLiked": false,
    "starCount": 3,

    "width": "Normal",
    "haveSizes" : [40 ,41, 42, 43, 44],
    "haveColor": ["kırmızı","lacivert","beyaz"]
  },

  {
    "title": "Q4 495 Lo",
    "categories" : ["Erkek","Q4"],
    "isItNew": false,
    "discountAmout": "",
    "coverImg": "/static/images/shoe/1.jpg",
    "imgsPath": [
      "/static/images/shoe/2.jpg",
      "/static/images/shoe/3.jpg",
      "/static/images/shoe/4.jpg",
      "/static/images/shoe/5.jpg"
    ],
    "oldPrice": "",
    "price": "£ 215",
    "isLiked": false,
    "starCount": 3,

    "width": "Normal",
    "haveSizes" : [40 ,41, 42, 43, 44, 45],
    "haveColor": ["beyaz","gri","siyah","sarı"]
  },

  {
    "title": "Nike Hyperdunk 2017",
    "categories" : ["Erkek","Nike"],
    "isItNew": false,
    "discountAmout": "-20%",
    "coverImg": "/static/images/shoe/1.jpg",
    "imgsPath": [
      "/static/images/shoe/2.jpg",
      "/static/images/shoe/3.jpg",
      "/static/images/shoe/4.jpg",
      "/static/images/shoe/5.jpg"
    ],
    "oldPrice": "£ 185",
    "price": "£ 156",
    "isLiked": false,
    "starCount": 3,

    "width": "Normal",
    "haveSizes" : [40 ,41, 42, 43, 44, 45],
    "haveColor": ["siyah","beyaz"]
  },

  {
    "title": "Jordan Why Not Zer0.2",
    "categories" : ["Erkek","Jordan"],
    "isItNew": false,
    "discountAmout": "",
    "coverImg": "/static/images/shoe/1.jpg",
    "imgsPath": [
      "/static/images/shoe/2.jpg",
      "/static/images/shoe/3.jpg",
      "/static/images/shoe/4.jpg",
      "/static/images/shoe/5.jpg"
    ],
    "oldPrice": "",
    "price": "£ 315",
    "isLiked": false,
    "starCount": 3,

    "width": "Normal",
    "haveSizes" : [40 ,41, 42, 43, 44],
    "haveColor": ["mavi","siyah","beyaz","turuncu","sarı","kırmızı"]
  },

  {
    "title": "Nike Free Run Distance 2 F",
    "categories" : ["Kadın","Nike"],
    "isItNew": false,
    "discountAmout": "",
    "coverImg": "/static/images/shoe/1.jpg",
    "imgsPath": [
      "/static/images/shoe/2.jpg",
      "/static/images/shoe/3.jpg",
      "/static/images/shoe/4.jpg",
      "/static/images/shoe/5.jpg"
    ],
    "oldPrice": "",
    "price": "£ 380",
    "isLiked": false,
    "starCount": 3,

    "width": "Küçük",
    "haveSizes" : [35, 36, 37, 38, 39 ,40],
    "haveColor": ["pembe","sarı","beyaz","siyah"]
  },

  {
    "title": "Under Armour Curry 5",
    "categories" : ["Erkek","Nike"],
    "isItNew": true,
    "discountAmout": "",
    "coverImg": "/static/images/shoe/1.jpg",
    "imgsPath": [
      "/static/images/shoe/2.jpg",
      "/static/images/shoe/3.jpg",
      "/static/images/shoe/4.jpg",
      "/static/images/shoe/5.jpg"
    ],
    "oldPrice": "",
    "price": "$ 130",
    "isLiked": false,
    "starCount": 3,

    "width": "Normal",
    "haveSizes" : [40 ,41, 42, 43, 44],
    "haveColor": ["siyah","gümüş","beyaz","gri"]
  },

  {
    "title": "Newfeel RW900",
    "categories" : ["Erkek","Kadın","Newfeel"],
    "isItNew": false,
    "discountAmout": "",
    "coverImg": "/static/images/shoe/1.jpg",
    "imgsPath": [
      "/static/images/shoe/2.jpg",
      "/static/images/shoe/3.jpg",
      "/static/images/shoe/4.jpg",
      "/static/images/shoe/5.jpg"
    ],
    "oldPrice": "",
    "price": "£ 280",
    "isLiked": false,
    "starCount": 3,

    "width": "Küçük - Normal",
    "haveSizes" : [35, 36, 37, 38, 39 ,40 ,41, 42, 43, 44],
    "haveColor": ["yeşil","mavi","beyaz","siyah"]
  },

  {
    "title": "Reebok Floatride Run Fast Pro F",
    "categories" : ["Kadın","Reebok"],
    "isItNew": false,
    "discountAmout": "-50%",
    "coverImg": "/static/images/shoe/1.jpg",
    "imgsPath": [
      "/static/images/shoe/2.jpg",
      "/static/images/shoe/3.jpg",
      "/static/images/shoe/4.jpg",
      "/static/images/shoe/5.jpg"
    ],
    "oldPrice": "£ 300",
    "price": "£ 150",
    "isLiked": false,
    "starCount": 3,

    "width": "Küçük",
    "haveSizes" : [35, 36, 37, 38, 39],
    "haveColor": ["yeşil","sarı","siyah","beyaz"]
  },

  {
    "title": "Asics Gel-Hyper Tri 3 F",
    "categories" : ["Kadın","Asics"],
    "isItNew": true,
    "discountAmout": "",
    "coverImg": "/static/images/shoe/1.jpg",
    "imgsPath": [
      "/static/images/shoe/2.jpg",
      "/static/images/shoe/3.jpg",
      "/static/images/shoe/4.jpg",
      "/static/images/shoe/5.jpg"
    ],
    "oldPrice": "",
    "price": "£ 290",
    "isLiked": false,
    "starCount": 3,

    "width": "Normal",
    "haveSizes" : [33, 34, 35, 36, 37],
    "haveColor": ["mor","pembe","beyaz"]
  },

  {
    "title": "Salomon Sense 7 hard Ground",
    "categories" : ["Kadın","Erkek","Salomon"],
    "isItNew": true,
    "discountAmout": "",
    "coverImg": "/static/images/shoe/1.jpg",
    "imgsPath": [
      "/static/images/shoe/2.jpg",
      "/static/images/shoe/3.jpg",
      "/static/images/shoe/4.jpg",
      "/static/images/shoe/5.jpg"
    ],
    "oldPrice": "",
    "price": "£ 415",
    "isLiked": false,
    "starCount": 3,

    "width": "Normal",
    "haveSizes" : [34, 35, 36, 37, 38, 39, 40 ,41, 42, 43, 44, 45],
    "haveColor": ["kırmızı","beyaz"]
  },

  {
    "title": "Salming S3",
    "categories" : ["Erkek","Salming"],
    "isItNew": true,
    "discountAmout": "-10%",
    "coverImg": "/static/images/shoe/1.jpg",
    "imgsPath": [
      "/static/images/shoe/2.jpg",
      "/static/images/shoe/3.jpg",
      "/static/images/shoe/4.jpg",
      "/static/images/shoe/5.jpg"
    ],
    "oldPrice": "£ 250",
    "price": "£ 225",
    "isLiked": false,
    "starCount": 3,

    "width": "Normal",
    "haveSizes" : [40 ,41, 42, 43],
    "haveColor": ["kırmızı","turuncu","sarı","siyah"]
  }
]
